<?xml version="1.0" encoding="utf-8"?>
<!-- Generator: Adobe Illustrator 23.1.0, SVG Export Plug-In . SVG Version: 6.00 Build 0)  -->
<svg version="1.1" id="Layer_1" xmlns="http://www.w3.org/2000/svg" xmlns:xlink="http://www.w3.org/1999/xlink" x="0px" y="0px"
	 viewBox="0 0 45 45" style="enable-background:new 0 0 45 45;" xml:space="preserve">
<style type="text/css">
	.st0{fill:#F38A03;}
</style>
<g>
	<path class="st0" d="M39.5,5.4h-34c-3,0-5.5,2.5-5.5,5.5v23.2c0,3,2.5,5.5,5.5,5.5h34c3,0,5.5-2.5,5.5-5.5V10.9
		C45,7.9,42.5,5.4,39.5,5.4z M42.5,34.1c0,1.6-1.3,3-3,3h-34c-1.6,0-3-1.3-3-3V10.9c0-1.6,1.3-3,3-3h34c1.6,0,3,1.3,3,3L42.5,34.1
		L42.5,34.1z"/>
	<path class="st0" d="M28.4,22.2l11-9.9c0.5-0.5,0.6-1.3,0.1-1.8c-0.5-0.5-1.3-0.6-1.8-0.1L22.5,24.1l-3-2.6c0,0,0,0,0,0
		c-0.1-0.1-0.1-0.1-0.2-0.2l-12-10.8C6.8,10,6,10,5.5,10.6c-0.5,0.5-0.4,1.3,0.1,1.8l11.1,10L5.7,32.7c-0.5,0.5-0.5,1.3-0.1,1.8
		c0.3,0.3,0.6,0.4,0.9,0.4c0.3,0,0.6-0.1,0.9-0.3L18.6,24l3.1,2.7c0.2,0.2,0.5,0.3,0.8,0.3c0.3,0,0.6-0.1,0.8-0.3l3.1-2.8l11.2,10.6
		c0.2,0.2,0.6,0.3,0.9,0.3c0.3,0,0.7-0.1,0.9-0.4c0.5-0.5,0.5-1.3,0-1.8L28.4,22.2z"/>
</g>
</svg>
